Proquimur
…
# exp <- exp %>% 
#   mutate(trt = fct_relevel(trt, "T1","T2","T3","T4","T5","T6","T7","T8","T9"))

Exploración numérica Incidencia y Severidad

exp %>%
    group_by(trt, date) %>%
    summarise(n = sum(!is.na(inc)), 
              mean = mean(inc, na.rm = T), 
              sd = sd(inc), 
              se = sd(inc)/sqrt(n))

# A tibble: 54 × 6
# Groups:   trt [9]
   trt   date       n   mean    sd    se
   <fct> <fct>  <int>  <dbl> <dbl> <dbl>
 1 T1    29-feb    12  0      0    0    
 2 T1    11-mar    12  0.666  1.23 0.354
 3 T1    20-mar    12  3.12   3.25 0.937
 4 T1    26-mar    13 26.0   14.5  4.02 
 5 T1    4-abr     12 75.1   12.4  3.59 
 6 T1    11-abr    12 85.6   13.5  3.91 
 7 T2    29-feb    12  0      0    0    
 8 T2    11-mar    12  1.18   3.02 0.873
 9 T2    20-mar    12  1.58   2.88 0.830
10 T2    26-mar    13 23.4   11.6  3.22 
# ℹ 44 more rows

exp %>%
    group_by(trt, date) %>%
    summarise(n = sum(!is.na(sev)), 
              mean = mean(sev, na.rm = T), 
              sd = sd(sev), 
              se = sd(sev)/sqrt(n))

# A tibble: 54 × 6
# Groups:   trt [9]
   trt   date       n    mean     sd      se
   <fct> <fct>  <int>   <dbl>  <dbl>   <dbl>
 1 T1    29-feb    12  0      0      0      
 2 T1    11-mar    12  0.0118 0.0275 0.00795
 3 T1    20-mar    12  0.0431 0.0382 0.0110 
 4 T1    26-mar    13  0.0323 0.0151 0.00418
 5 T1    4-abr     12  2.58   3.92   1.13   
 6 T1    11-abr    12 11.4    9.45   2.73   
 7 T2    29-feb    12  0      0      0      
 8 T2    11-mar    12  0.0065 0.0152 0.00440
 9 T2    20-mar    12  0.0136 0.0259 0.00746
10 T2    26-mar    13  0.0365 0.0183 0.00508
# ℹ 44 more rows
…
  )

rto_sum <- rto %>%
    group_by(trt, plot) %>%
    summarise(n_vainas = sum((n_vainas)), 
              rto_vaina  = sum(peso_vaina), 
              rto_grano   = sum(peso_grano*1.3), 
              ) %>% 
  mutate(rel_grano.caja = ((rto_grano/rto_vaina)*100),
         peso_1vaina = ((rto_vaina/10/n_vainas )),
         )

rto_sum

# A tibble: 36 × 7
# Groups:   trt [9]
   trt   plot  n_vainas rto_vaina rto_grano rel_grano.caja peso_1vaina
   <fct> <fct>    <int>     <dbl>     <dbl>          <dbl>       <dbl>
 1 T1    101        401      4362     2558.           58.7        1.09
 2 T1    205        384      4378     2535            57.9        1.14
 3 T1    307        453      5878     3939            67.0        1.30
 4 T1    408        343      4395     2050.           46.6        1.28
 5 T2    102        391      4427     2305.           52.1        1.13
 6 T2    204        475      5036     2613            51.9        1.06
 7 T2    305        487      6118     3563.           58.2        1.26
 8 T2    407        490      5280     2782            52.7        1.08
 9 T3    103        496      6035     3700.           61.3        1.22
10 T3    207        401      4743     3142.           66.2        1.18
# ℹ 26 more rows
…
